{
    "name" : {
        "message" : "Keeper® - gestionar de parole și seif digital"
    },
    "description" : {
        "message" : "Stocați, creați și completați automat datele dvs. de conectare instantaneu - pentru orice site securizat din browserul dvs."
    }
}
