{
    "name" : {
        "message" : "Keeper® Gestionnaire de mots de passe et coffre-fort numérique"
    },
    "description" : {
        "message" : "Stockez, créez et remplissez automatiquement et instantanément vos champs de connexion sur tous les sites sécurisés."
    }
}
