{
    "name" : {
        "message" : "Εφαρμογή διαχείρισης κωδικού πρόσβασης Keeper® & ψηφιακό θησαυροφυλάκιο"
    },
    "description" : {
        "message" : "Αποθήκευση, δημιουργία και αυτόματη συμπλήρωση των διαπιστευτηρίων σύνδεσής  μέσα από το πρόγραμμα περιήγησης σας."
    }
}
